ACC1,32,1/2/2017 0:00
ACC1,99,1/3/2017 0:00
ACC1,85,1/7/2017 0:00
ACC1,43,1/10/2017 0:00
ACC1,70,1/11/2017 0:00
ACC1,16,1/12/2017 0:00
ACC1,13,1/14/2017 0:00
ACC2,67,1/2/2017 0:00
ACC2,93,1/3/2017 0:00
ACC2,56,1/4/2017 0:00
ACC2,3,1/5/2017 0:00
ACC2,67,1/6/2017 0:00
ACC2,44,1/8/2017 0:00
ACC2,40,1/13/2017 0:00
ACC2,3,1/14/2017 0:00
