ACC1,44,4/29/2017 13:35
ACC1,5,5/5/2017 19:39
ACC1,39,1/14/2017 0:33
ACC1,28,5/26/2017 9:39
ACC1,87,2/25/2017 6:55
ACC1,51,3/18/2017 2:56
ACC1,81,1/26/2017 19:38
ACC1,57,1/20/2017 3:51
ACC1,4,4/17/2017 15:55
ACC1,75,2/22/2017 22:10
ACC1,5,3/7/2017 20:30
ACC1,8,1/15/2017 15:04
ACC1,77,1/20/2017 1:43
ACC1,15,5/14/2017 23:32
ACC1,81,4/1/2017 2:57
ACC1,18,5/13/2017 5:58
ACC1,84,4/15/2017 3:14
ACC1,42,2/21/2017 6:28
ACC1,49,4/21/2017 6:03
ACC1,87,3/2/2017 7:31
ACC1,95,1/1/2017 4:21
ACC1,93,4/5/2017 11:21
ACC1,94,1/13/2017 21:06
ACC1,72,5/28/2017 23:28
ACC2,52,4/29/2017 9:12
ACC2,48,3/24/2017 2:42
ACC2,31,2/8/2017 11:07
ACC2,24,3/13/2017 6:56
ACC2,1,3/5/2017 14:31
ACC2,24,4/15/2017 15:34
ACC2,4,3/10/2017 10:15
ACC2,86,1/19/2017 2:41
ACC2,36,4/21/2017 16:12
ACC2,33,1/3/2017 10:36
ACC2,34,4/14/2017 13:38
ACC2,30,2/11/2017 18:52
ACC2,94,1/19/2017 21:30
ACC2,84,2/14/2017 19:58
ACC2,59,5/4/2017 23:09
ACC2,60,3/15/2017 13:37
ACC2,41,3/25/2017 17:46
ACC2,92,5/3/2017 20:15
ACC2,77,1/10/2017 20:48
ACC2,99,5/12/2017 18:33
ACC2,55,2/13/2017 22:33
ACC2,88,5/24/2017 0:16
ACC2,92,3/20/2017 2:35
ACC2,28,3/4/2017 4:17
ACC2,94,3/15/2017 19:41
ACC2,71,4/24/2017 15:48
ACC2,32,1/18/2017 21:30
ACC3,65,4/4/2017 8:10
ACC3,11,4/28/2017 11:52
ACC3,24,4/10/2017 6:54
ACC3,22,4/16/2017 23:10
ACC3,76,5/26/2017 10:36
ACC3,35,5/16/2017 9:06
ACC3,58,3/24/2017 3:21
ACC3,50,4/14/2017 12:06
ACC3,43,1/3/2017 7:16
ACC3,38,5/18/2017 22:44
ACC3,55,5/29/2017 20:09
ACC3,22,1/1/2017 12:49
ACC3,60,3/22/2017 2:17
ACC3,6,2/16/2017 22:08
ACC3,87,1/25/2017 2:13
ACC3,2,4/14/2017 21:33
ACC3,12,2/16/2017 11:44
ACC3,19,3/28/2017 20:20
ACC3,58,4/18/2017 22:08
ACC4,71,4/12/2017 7:55
ACC4,88,4/6/2017 3:04
ACC4,71,4/3/2017 14:24
ACC4,21,2/16/2017 20:18
ACC4,4,4/17/2017 11:01
ACC4,53,2/4/2017 14:40
ACC4,63,3/25/2017 4:50
ACC4,5,5/27/2017 18:24
ACC4,26,2/21/2017 10:28
ACC4,94,3/23/2017 16:20
ACC4,99,5/6/2017 8:16
ACC4,88,2/8/2017 22:21
ACC4,76,4/16/2017 11:30
ACC4,77,3/29/2017 17:15
ACC4,22,2/9/2017 21:40
ACC4,76,5/22/2017 7:44
ACC4,58,3/24/2017 12:49
ACC4,96,5/5/2017 8:44
ACC4,62,3/20/2017 9:23
ACC4,8,3/24/2017 18:09
ACC4,14,3/15/2017 4:23
ACC4,83,2/12/2017 3:20
ACC4,58,1/22/2017 2:24
ACC4,79,5/6/2017 22:16
ACC4,9,4/28/2017 3:18
ACC4,14,4/4/2017 1:35
ACC4,31,4/19/2017 8:53
ACC4,64,5/3/2017 16:03
ACC4,49,1/21/2017 18:05
ACC4,71,4/10/2017 12:09
